{
  "project_info": {
    "project_number": "296048132892",
    "firebase_url": "https://rappxi-e8936.firebaseio.com",
    "project_id": "rappxi-e8936",
    "storage_bucket": "rappxi-e8936.appspot.com"
  },
  "client": [
    {
      "client_info": {
        "mobilesdk_app_id": "1:296048132892:android:523c02ffe67cb86e",
        "android_client_info": {
          "package_name": "co.com.rapxi.rapxicliente"
        }
      },
      "oauth_client": [
        {
          "client_id": "296048132892-tto5nvapeljr6odhvpdrcc798thtdgnc.apps.googleusercontent.com",
          "client_type": 1,
          "android_info": {
            "package_name": "co.com.rapxi.rapxicliente",
            "certificate_hash": "8a1501b1403cc235e1f74942aa46188b778a5479"
          }
        },
        {
          "client_id": "296048132892-m17dka2qjcbf4jdbb9mpffpg7flokb37.apps.googleusercontent.com",
          "client_type": 3
        }
      ],
      "api_key": [
        {
          "current_key": "AIzaSyDk7TBvkEZQ_DG_4YNM0U05WFoD4Zrcu24"
        }
      ],
      "services": {
        "analytics_service": {
          "status": 1
        },
        "appinvite_service": {
          "status": 2,
          "other_platform_oauth_client": [
            {
              "client_id": "296048132892-m17dka2qjcbf4jdbb9mpffpg7flokb37.apps.googleusercontent.com",
              "client_type": 3
            }
          ]
        },
        "ads_service": {
          "status": 2
        }
      }
    },
    {
      "client_info": {
        "mobilesdk_app_id": "1:296048132892:android:6846481e4ead9cc8",
        "android_client_info": {
          "package_name": "co.com.rapxy.rapxy"
        }
      },
      "oauth_client": [
        {
          "client_id": "296048132892-ku4hvsh47rird9pl4bcrtilftmi05b2v.apps.googleusercontent.com",
          "client_type": 1,
          "android_info": {
            "package_name": "co.com.rapxy.rapxy",
            "certificate_hash": "79d19d21a9d917719dd3c316ceab5c04048e8e67"
          }
        },
        {
          "client_id": "296048132892-m17dka2qjcbf4jdbb9mpffpg7flokb37.apps.googleusercontent.com",
          "client_type": 3
        }
      ],
      "api_key": [
        {
          "current_key": "AIzaSyDk7TBvkEZQ_DG_4YNM0U05WFoD4Zrcu24"
        }
      ],
      "services": {
        "analytics_service": {
          "status": 1
        },
        "appinvite_service": {
          "status": 2,
          "other_platform_oauth_client": [
            {
              "client_id": "296048132892-m17dka2qjcbf4jdbb9mpffpg7flokb37.apps.googleusercontent.com",
              "client_type": 3
            }
          ]
        },
        "ads_service": {
          "status": 2
        }
      }
    }
  ],
  "configuration_version": "1"
}